{
    "name": "Certified",
    "alias": "certified",
    "description": "",
    "keywords": [],
    "active": 1,
    "order": 0,
    "providers": [
        "Modules\\Certified\\Providers\\CertifiedServiceProvider"
    ],
    "aliases":{},
    "files": [
        "start.php"
    ]
}